[
    {
      "id":0,
      "name":"Hamburguesas",
      "tipos":[
        {
          "id":1,
          "imageName":"assets/images/burgers/hamburguesa_1.jpg",
          "descripcion":"carner, lechuga y tomate",
          "price": 170.0
        },
        {
          "id":3,
          "imageName":"assets/images/burgers/Bigmc.png",
          "descripcion":"cheddar y bacon",
          "price": 560.0        
        },
        {
          "id":4,
          "imageName":"assets/images/burgers/C01.jpg",
          "descripcion":"carner, lechuga y tomate",
          "price": 170.0
        },
        {
          "id":5,
          "imageName":"assets/images/burgers/C01.png",
          "descripcion":"pepino",
          "price": 300.0
        },
        {
          "id":6,
          "imageName":"assets/images/burgers/C03.png",
          "descripcion":"cheddar y bacon",
          "price": 560.0        
        },
        {
          "id":7,
          "imageName":"assets/images/burgers/C04-1.png",
          "descripcion":"carner, lechuga y tomate",
          "price": 170.0
        },
        {
          "id":8,
          "imageName":"assets/images/burgers/C24.png",
          "descripcion":"pepino",
          "price": 300.0
        },
        {
          "id":9,
          "imageName":"assets/images/burgers/Cheeseburger.jpg",
          "descripcion":"cheddar y bacon",
          "price": 560.0        
        },
        {
          "id":10,
          "imageName":"assets/images/burgers/Cuarto-del-abuelo.jpg",
          "descripcion":"carner, lechuga y tomate",
          "price": 170.0
        },
        {
          "id":11,
          "imageName":"assets/images/burgers/D01.png",
          "descripcion":"pepino",
          "price": 300.0
        },
        {
          "id":12,
          "imageName":"assets/images/burgers/D03.png",
          "descripcion":"cheddar y bacon",
          "price": 560.0        
        },
        {
          "id":13,
          "imageName":"assets/images/burgers/HdA-21V.jpg",
          "descripcion":"carner, lechuga y tomate",
          "price": 170.0
        },
        {
          "id":14,
          "imageName":"assets/images/burgers/HdA-23V.jpg",
          "descripcion":"pepino",
          "price": 300.0
        },
        {
          "id":15,
          "imageName":"assets/images/burgers/J03.png",
          "descripcion":"cheddar y bacon",
          "price": 560.0        
        },
        {
          "id":16,
          "imageName":"assets/images/burgers/Sin-titulo-1.jpg.jpg",
          "descripcion":"carner, lechuga y tomate",
          "price": 170.0
        }
      ]
    },
    {
      "id":1,
      "name":"Papas",
      "tipos":[
        {
          "id":1,
          "imageName":"assets/images/fries/papas_1.jpg",
          "descripcion":"cebolla",
          "price": 140.0
        },
        {
          "id":2,
          "imageName":"assets/images/fries/papas_2.jpg",
          "descripcion":"cheddar",
          "price": 160.0
        }
      ]
    },
    {
      "id":3,
      "name":"Cervezas",
      "tipos":[
        {
          "id":1,
          "imageName":"assets/images/fries/cervezas_1.jpg",
          "descripcion":"stout",
          "price": 140.0
        },
        {
          "id":2,
          "imageName":"assets/images/fries/cervezas_2.jpg",
          "descripcion":"honey",
          "price": 160.0
        },
        {
          "id":3,
          "imageName":"assets/images/fries/cervezas_3.jpg",
          "descripcion":"irish",
          "price": 140.0
        },
        {
          "id":4,
          "imageName":"assets/images/fries/cervezas_5.jpg",
          "descripcion":"negra",
          "price": 160.0
        }
      ]
    }
    ]